%YAML 1.1
%TAG !u! tag:unity3d.com,2011:
--- !u!114 &11400000
MonoBehaviour:
  m_ObjectHideFlags: 0
  m_CorrespondingSourceObject: {fileID: 0}
  m_PrefabInstance: {fileID: 0}
  m_PrefabAsset: {fileID: 0}
  m_GameObject: {fileID: 0}
  m_Enabled: 1
  m_EditorHideFlags: 0
  m_Script: {fileID: 11500000, guid: 9a4bb4f4c0a1b664c8b8780aa200ec0b, type: 3}
  m_Name: D169A425-51CF-455A-8BE1-CC5A2E085FBE
  m_EditorClassIdentifier: 
  objectName: State_Weapon_Material
  id: 3150816477
  guid: D169A425-51CF-455A-8BE1-CC5A2E085FBE
